<?xml version="1.0" encoding="UTF-8" standalone="no"?>
<!-- Created with Inkscape (http://www.inkscape.org/) -->

<svg
   xmlns:dc="http://purl.org/dc/elements/1.1/"
   xmlns:cc="http://creativecommons.org/ns#"
   xmlns:rdf="http://www.w3.org/1999/02/22-rdf-syntax-ns#"
   xmlns:svg="http://www.w3.org/2000/svg"
   xmlns="http://www.w3.org/2000/svg"
   xmlns:sodipodi="http://sodipodi.sourceforge.net/DTD/sodipodi-0.dtd"
   xmlns:inkscape="http://www.inkscape.org/namespaces/inkscape"
   width="500"
   height="500"
   id="svg2"
   version="1.1"
   inkscape:version="0.48.5 r10040"
   sodipodi:docname="logo.svg">
  <defs
     id="defs4" />
  <sodipodi:namedview
     id="base"
     pagecolor="#ffffff"
     bordercolor="#666666"
     borderopacity="1.0"
     inkscape:pageopacity="0.0"
     inkscape:pageshadow="2"
     inkscape:zoom="0.35"
     inkscape:cx="375"
     inkscape:cy="514.28571"
     inkscape:document-units="px"
     inkscape:current-layer="layer1"
     showgrid="false"
     inkscape:window-width="1366"
     inkscape:window-height="702"
     inkscape:window-x="0"
     inkscape:window-y="27"
     inkscape:window-maximized="1" />
  <metadata
     id="metadata7">
    <rdf:RDF>
      <cc:Work
         rdf:about="">
        <dc:format>image/svg+xml</dc:format>
        <dc:type
           rdf:resource="http://purl.org/dc/dcmitype/StillImage" />
        <dc:title></dc:title>
      </cc:Work>
    </rdf:RDF>
  </metadata>
  <g
     inkscape:label="Calque 1"
     inkscape:groupmode="layer"
     id="layer1"
     transform="translate(0,-552.36218)">
    <path
       sodipodi:type="star"
       style="fill:#ed0000;fill-opacity:1"
       id="path2987"
       sodipodi:sides="5"
       sodipodi:cx="260"
       sodipodi:cy="432.36218"
       sodipodi:r1="37.142857"
       sodipodi:r2="18.571428"
       sodipodi:arg1="0.39479112"
       sodipodi:arg2="1.0231097"
       inkscape:flatsided="false"
       inkscape:rounded="0"
       inkscape:randomized="5.781"
       d="M 349.13121,429.6771 311.43361,404.94827 423.26673,391.40569 110.54905,425.55978 283.37786,256.6381 134.38522,487.78007 91.259241,215.84582 l 6.054767,267.29481 3.570322,-163.91842 24.68394,166.28637 z"
       inkscape:transform-center-x="2.7370149"
       inkscape:transform-center-y="-80.549238"
       transform="translate(45.71429,434.28572)" />
  </g>
</svg>
